\relax 
\catcode`:\active
\catcode`;\active
\catcode`!\active
\catcode`?\active
\providecommand \oddpage@label [2]{}
\select@language{french}
\@writefile{toc}{\select@language{french}}
\@writefile{lof}{\select@language{french}}
\@writefile{lot}{\select@language{french}}
\@writefile{toc}{\contentsline {section}{Introduction}{3}}
\@writefile{toc}{\contentsline {section}{\numberline {I}Description du projet et objectif}{3}}
\@writefile{toc}{\contentsline {section}{\numberline {II}Avancement au cours de l'ann\IeC {\'e}e}{4}}
\@writefile{toc}{\contentsline {section}{\numberline {III}Projet d'utilisation des logiciels IBM : SPSS et ODM}{5}}
\@writefile{toc}{\contentsline {subsection}{\numberline {III.1}Pr\IeC {\'e}sentation succincte de SPSS}{5}}
\@writefile{toc}{\contentsline {subsection}{\numberline {III.2}Pourquoi nous avons abandonn\IeC {\'e} SPSS}{5}}
\@writefile{toc}{\contentsline {subsection}{\numberline {III.3}Pr\IeC {\'e}sentation et utilisation d'ODM}{6}}
\@writefile{toc}{\contentsline {subsection}{\numberline {III.4}Difficult\IeC {\'e}s avec ODM}{6}}
\@writefile{toc}{\contentsline {section}{\numberline {IV}Analyse th\IeC {\'e}orique du probl\IeC {\`e}me et mod\IeC {\'e}lisation}{7}}
\@writefile{toc}{\contentsline {subsection}{\numberline {IV.1}D\IeC {\'e}termination statistique du th\IeC {\`e}me des messages}{7}}
\newlabel{themeMessages}{{IV.1}{7}}
\@writefile{toc}{\contentsline {subsubsection}{\numberline {IV.1.1}Normalisation du texte}{7}}
\@writefile{toc}{\contentsline {subsubsection}{\numberline {IV.1.2}Description de l'algorithme TfidfVectorizer}{7}}
\@writefile{toc}{\contentsline {subsubsection}{\numberline {IV.1.3}Classification des tweets par th\IeC {\`e}me - Entropie maximum}{8}}
\@writefile{toc}{\contentsline {paragraph}{Choix de la m\IeC {\'e}thode et de la biblioth\IeC {\`e}que}{8}}
\@writefile{toc}{\contentsline {paragraph}{Notations}{9}}
\@writefile{toc}{\contentsline {paragraph}{Mod\IeC {\`e}le logarithme-lin\IeC {\'e}aire}{9}}
\newlabel{estimation des coeffcients}{{IV.1.3}{10}}
\@writefile{toc}{\contentsline {paragraph}{Estimation des coefficients}{10}}
\newlabel{entropie}{{IV.1.3}{11}}
\@writefile{toc}{\contentsline {paragraph}{Quel rapport avec l'entropie?}{11}}
\@writefile{toc}{\contentsline {subsection}{\numberline {IV.2}D\IeC {\'e}terminer le profil de l'utilisateur}{12}}
\newlabel{profil}{{IV.2}{12}}
\@writefile{toc}{\contentsline {subsubsection}{\numberline {IV.2.1}Principe d'\IeC {\'e}laboration du profil en 5 \IeC {\'e}tapes}{13}}
\newlabel{etapes}{{IV.2.1}{13}}
\@writefile{toc}{\contentsline {subsubsection}{\numberline {IV.2.2}D\IeC {\'e}terminer le lien entre deux utlisateurs u et v}{14}}
\@writefile{lof}{\contentsline {figure}{\numberline {1}{\ignorespaces exmple de graphe biparti}}{15}}
\@writefile{toc}{\contentsline {subsubsection}{\numberline {IV.2.3}Apprentissage statistique}{15}}
\newlabel{stats}{{IV.2.3}{15}}
\@writefile{toc}{\contentsline {paragraph}{Base de donn\IeC {\'e}es}{16}}
\@writefile{toc}{\contentsline {paragraph}{Quelques m\IeC {\'e}thodes d'apprentissage statistique autre que la r\IeC {\'e}gression lin\IeC {\'e}aire}{16}}
\newlabel{regression lineaire}{{IV.2.3}{16}}
\@writefile{toc}{\contentsline {paragraph}{La r\IeC {\'e}gression lin\IeC {\'e}aire au service de la d\IeC {\'e}termination du profil d'un utilisateur}{16}}
\@writefile{toc}{\contentsline {subsection}{\numberline {IV.3}Traitement des messages (Tweets)}{17}}
\@writefile{toc}{\contentsline {subsubsection}{\numberline {IV.3.1}Pertinence d'un tweet}{17}}
\@writefile{lof}{\contentsline {figure}{\numberline {2}{\ignorespaces Liste des douze principaux th\IeC {\`e}mes}}{18}}
\@writefile{toc}{\contentsline {subsubsection}{\numberline {IV.3.2}Classification}{19}}
\@writefile{toc}{\contentsline {section}{\numberline {V}Construction d'une base de donn\IeC {\'e}es}{20}}
\@writefile{toc}{\contentsline {section}{\numberline {VI} Impl\IeC {\'e}mentation de l'application}{21}}
\@writefile{toc}{\contentsline {subsection}{\numberline {VI.1}Java}{21}}
\newlabel{API,application,java}{{VI.1}{21}}
\@writefile{toc}{\contentsline {subsection}{\numberline {VI.2}Utilisation des biblioth\IeC {\`e}ques Python}{21}}
\@writefile{toc}{\contentsline {subsubsection}{\numberline {VI.2.1}Motivations}{21}}
\@writefile{toc}{\contentsline {subsubsection}{\numberline {VI.2.2}Probl\IeC {\`e}mes d'int\IeC {\'e}grations Jython}{21}}
\@writefile{toc}{\contentsline {subsection}{\numberline {VI.3}Impl\IeC {\'e}mentation en Java du traitement des messages}{22}}
\@writefile{toc}{\contentsline {subsubsection}{\numberline {VI.3.1}Biblioth\IeC {\`e}ques Java : Stanford Classifier et Snowball}{22}}
\@writefile{toc}{\contentsline {subsubsection}{\numberline {VI.3.2}Structure du projet Java}{22}}
\@writefile{toc}{\contentsline {paragraph}{TwMParser}{22}}
\@writefile{toc}{\contentsline {paragraph}{AbstractTweetParser}{22}}
\@writefile{toc}{\contentsline {paragraph}{classifier}{23}}
\@writefile{toc}{\contentsline {paragraph}{Tweet}{23}}
\@writefile{toc}{\contentsline {paragraph}{themes}{23}}
\@writefile{toc}{\contentsline {paragraph}{LinearRegression}{23}}
\@writefile{toc}{\contentsline {paragraph}{profil}{23}}
\@writefile{toc}{\contentsline {paragraph}{LastTweets}{23}}
\@writefile{toc}{\contentsline {subsection}{\numberline {VI.4}Une application sous android}{23}}
\@writefile{toc}{\contentsline {subsubsection}{\numberline {VI.4.1}Fonctionnalit\IeC {\'e}s principales de l'application}{24}}
\@writefile{toc}{\contentsline {subsubsection}{\numberline {VI.4.2}Fonctionnement g\IeC {\'e}n\IeC {\'e}ral de l'application}{24}}
\@writefile{lof}{\contentsline {figure}{\numberline {3}{\ignorespaces Fonctionnement de l'application - flux de donn\IeC {\'e}es entre les composantes}}{25}}
\@writefile{toc}{\contentsline {subsubsection}{\numberline {VI.4.3}Int\IeC {\'e}gration des algorithmes de classement des Tweets et d'\IeC {\'e}laboration du profil}{25}}
\@writefile{toc}{\contentsline {paragraph}{Contraintes mat\IeC {\'e}rielles, vitesse d'\IeC {\'e}x\IeC {\'e}cution}{25}}
\@writefile{toc}{\contentsline {paragraph}{Contraintes li\IeC {\'e}es \IeC {\`a} Twitter}{26}}
\@writefile{toc}{\contentsline {subsection}{\numberline {VI.5}Extraction des donn\IeC {\'e}es}{27}}
\@writefile{toc}{\contentsline {subsubsection}{\numberline {VI.5.1}Connexion \IeC {\`a} Twitter}{27}}
\@writefile{toc}{\contentsline {subsubsection}{\numberline {VI.5.2}Quelles donn\IeC {\'e}es extrait-on ?}{27}}
\@writefile{toc}{\contentsline {subsubsection}{\numberline {VI.5.3}Stockage des donn\IeC {\'e}es}{27}}
\@writefile{toc}{\contentsline {section}{\numberline {VII} R\IeC {\'e}sultats}{28}}
\newlabel{resultats}{{VII}{28}}
\@writefile{toc}{\contentsline {subsection}{\numberline {VII.1}Efficacit\IeC {\'e} du classifieur}{28}}
\@writefile{toc}{\contentsline {subsection}{\numberline {VII.2}Construction du profil}{28}}
\@writefile{toc}{\contentsline {paragraph}{Variation de $\alpha $}{29}}
\@writefile{toc}{\contentsline {paragraph}{Variation de $\beta $}{29}}
\@writefile{toc}{\contentsline {paragraph}{Variation de $R_w$}{29}}
\@writefile{toc}{\contentsline {paragraph}{Variation de $W_{ff}$}{29}}
\@writefile{toc}{\contentsline {subsection}{\numberline {VII.3}Resultats finaux visibles par l'utilisateur}{30}}
\@writefile{toc}{\contentsline {section}{Conclusion}{32}}
\@writefile{toc}{\contentsline {section}{Bibliographie}{33}}
\newlabel{bibli}{{VII.3}{33}}
